fr\umfds\TP6_AGL\ColisExpress.class
fr\umfds\TP6_AGL\Recommandation.class
fr\umfds\TP6_AGL\App.class
fr\umfds\TP6_AGL\ObjetPostal.class
fr\umfds\TP6_AGL\Lettre.class
fr\umfds\TP6_AGL\Colis.class
fr\umfds\TP6_AGL\Courriel.class
fr\umfds\TP6_AGL\SacPostal.class
fr\umfds\TP6_AGL\ColisExpressInvalide.class
fr\umfds\TP6_AGL\MainPoste.class
